Case study 2
…
# See which StockCodes still have null descriptions
null_by_stockcode <- df |> 
  filter(is.na(Description)) |> 
  group_by(StockCode) |> 
  summarise(
    Count = n(),
    Sample_Invoice = first(Invoice),
    .groups = 'drop'
  ) |> 
  arrange(desc(Count))

print(null_by_stockcode)

# A tibble: 356 × 3
   StockCode    Count Sample_Invoice
   <chr>        <int> <chr>         
 1 21502            2 494114        
 2 22016            2 496253        
 3 35983            2 490736        
 4 84494B           2 495330        
 5 84558B           2 493226        
 6 84933D           2 495191        
 7 90025A           2 498056        
 8 gift_0001_60     2 496250        
 9 gift_0001_90     2 496252        
10 10124C           1 507811        
# ℹ 346 more rows
…
# looks like for some of them it's the same customer doing the negative quantity
returns_df |> 
  select(`Customer ID`, Invoice, StockCode, Description, Quantity, Price, Country, InvoiceDate)

# A tibble: 12,221 × 8
   `Customer ID` Invoice StockCode Description            Quantity Price Country
           <dbl> <chr>   <chr>     <chr>                     <dbl> <dbl> <chr>  
 1         16321 C489449 22087     PAPER BUNTING WHITE L…      -12  2.95 Austra…
 2         16321 C489449 85206A    CREAM FELT EASTER EGG…       -6  1.65 Austra…
 3         16321 C489449 21895     POTTING SHED SOW 'N' …       -4  4.25 Austra…
 4         16321 C489449 21896     POTTING SHED TWINE           -6  2.1  Austra…
 5         16321 C489449 22083     PAPER CHAIN KIT RETRO…      -12  2.95 Austra…
 6         16321 C489449 21871     SAVE THE PLANET MUG         -12  1.25 Austra…
 7         16321 C489449 84946     ANTIQUE SILVER TEA GL…      -12  1.25 Austra…
 8         16321 C489449 84970S    HANGING HEART ZINC T-…      -24  0.85 Austra…
 9         16321 C489449 22090     PAPER BUNTING RETRO S…      -12  2.95 Austra…
10         17592 C489459 90200A    PURPLE SWEETHEART BRA…       -3  4.25 United…
# ℹ 12,211 more rows
# ℹ 1 more variable: InvoiceDate <date>
…
Average Revenue per Week: £ 191,328 

Which countries contribute the most to Sales growth?

UK, Ireland, Netherlands, Germany, France

# revenue by country
# Most of the distribution is in the UK and the rest of Europe
df |> 
  group_by(Country) |> 
  summarise(TotalRevenue = sum(Revenue, na.rm = TRUE)) |> 
  arrange(desc(TotalRevenue))

# A tibble: 40 × 2
   Country        TotalRevenue
   <chr>                 <dbl>
 1 United Kingdom     8728553.
 2 EIRE                380978.
 3 Netherlands         266260 
 4 Germany             184165.
 5 France              137653.
 6 Sweden               51263.
 7 Denmark              50349.
 8 Spain                44526.
 9 Switzerland          41182.
10 Australia            31447.
# ℹ 30 more rows
…
What are the top-selling products?

# top selling products
# M is manual, you can't track what M is
# 22423, 85123A, M
df |> 
  group_by(StockCode) |> 
  summarise(TotalRevenue = sum(Revenue, na.rm = TRUE)) |> 
  arrange(desc(TotalRevenue))

# A tibble: 4,248 × 2
   StockCode TotalRevenue
   <chr>            <dbl>
 1 M              262980.
 2 22423          170079.
 3 85123A         158591.
 4 85099B          89115.
 5 84879           73093.
 6 22086           58189.
 7 47566           49683.
 8 84347           47985.
 9 21843           45255.
10 48138           42148.
# ℹ 4,238 more rows
…
# revenue grouped by customer
# most of the revenue doesn't have a customer ID, who is buying all of this then
# Highest buying customers, 18102, 14646
df |> 
  group_by(`Customer ID`) |> 
  summarise(TotalRevenue = sum(Revenue, na.rm = TRUE)) |> 
  arrange(desc(TotalRevenue))

# A tibble: 4,311 × 2
   `Customer ID` TotalRevenue
           <dbl>        <dbl>
 1            NA     1357117.
 2         18102      349164.
 3         14646      247614.
 4         14156      196567.
 5         14911      152148.
 6         13694      131443.
 7         17511       84541.
 8         15061       83284.
 9         16684       80489.
10         16754       65500.
# ℹ 4,301 more rows
…
# Monthly demand for top products
monthly_demand <- df |> 
  filter(StockCode %in% top_products$StockCode) |> 
  mutate(Month = floor_date(InvoiceDate, "month")) |> 
  group_by(StockCode, Description, Month) |> 
  summarise(
    Quantity_Sold = sum(Quantity, na.rm = TRUE),
    .groups = 'drop'
  )

print(monthly_demand)

# A tibble: 145 × 4
   StockCode Description        Month      Quantity_Sold
   <chr>     <chr>              <date>             <dbl>
 1 17003     BROCADE RING PURSE 2009-12-01           801
 2 17003     BROCADE RING PURSE 2010-01-01           961
 3 17003     BROCADE RING PURSE 2010-02-01          1895
 4 17003     BROCADE RING PURSE 2010-03-01           997
 5 17003     BROCADE RING PURSE 2010-04-01           901
 6 17003     BROCADE RING PURSE 2010-05-01          3970
 7 17003     BROCADE RING PURSE 2010-06-01          3350
 8 17003     BROCADE RING PURSE 2010-07-01          1191
 9 17003     BROCADE RING PURSE 2010-08-01          1944
10 17003     BROCADE RING PURSE 2010-09-01         13931
# ℹ 135 more rows
…
# View forecast
print(seasonal_forecast)

# A tibble: 138 × 5
   StockCode Description      Month_Number Avg_Monthly_Demand Max_Monthly_Demand
   <chr>     <chr>            <ord>                     <dbl>              <dbl>
 1 17003     BROCADE RING PU… Jan                          96                720
 2 17003     BROCADE RING PU… Feb                         146                720
 3 17003     BROCADE RING PU… Mar                         100                720
 4 17003     BROCADE RING PU… Apr                         100                720
 5 17003     BROCADE RING PU… May                         284               1440
 6 17003     BROCADE RING PU… Jun                         112                720
 7 17003     BROCADE RING PU… Jul                          92                720
 8 17003     BROCADE RING PU… Aug                         177                720
 9 17003     BROCADE RING PU… Sep                         580               7128
10 17003     BROCADE RING PU… Oct                         251               4752
# ℹ 128 more rows
…
